…
## Tidy data

### 2.1 Tidy or Not

I think the data is tidy because each row is an observation, each column
is a variable and each cell is a value. Let’s take a look at the current
data before we untidy it. We will reorder the columns for convenience to
show the difference of the data before and after.

``` r
  select(vancouver_trees, tree_id, diameter, root_barrier, everything()) 
```

    ## # A tibble: 146,611 x 22
    ##    tree_id diameter root_barrier civic_number std_street genus_name species_name
    ##      <dbl>    <dbl> <chr>               <dbl> <chr>      <chr>      <chr>       
    ##  1  149556     10   N                     494 W 58TH AV  ULMUS      AMERICANA   
    ##  2  149563     10   N                     450 W 58TH AV  ZELKOVA    SERRATA     
    ##  3  149579      4   N                    4994 WINDSOR ST STYRAX     JAPONICA    
    ##  4  149590     18   N                     858 E 39TH AV  FRAXINUS   AMERICANA   
    ##  5  149604      9   N                    5032 WINDSOR ST ACER       CAMPESTRE   
    ##  6  149616      5   N                     585 W 61ST AV  PYRUS      CALLERYANA  
    ##  7  149617     15   N                    4909 SHERBROOK~ ACER       PLATANOIDES 
    ##  8  149618     14   N                    4925 SHERBROOK~ ACER       PLATANOIDES 
    ##  9  149619     16   N                    4969 SHERBROOK~ ACER       PLATANOIDES 
    ## 10  149625      7.5 N                     720 E 39TH AV  FRAXINUS   AMERICANA   
    ## # ... with 146,601 more rows, and 15 more variables: cultivar_name <chr>,
    ## #   common_name <chr>, assigned <chr>, plant_area <chr>, on_street_block <dbl>,
    ## #   on_street <chr>, neighbourhood_name <chr>, street_side_name <chr>,
    ## #   height_range_id <dbl>, curb <chr>, date_planted <date>, longitude <dbl>,
    ## #   latitude <dbl>, position <chr>, age_months <dbl>
…
  #glue the two new columns to the original tibble

  table_untidy<- vancouver_trees %>%
             select(-diameter,-root_barrier)%>%
             mutate(root_barrier_N=table_split$N , root_barrier_Y=table_split$Y)%>%
             select(tree_id,root_barrier_N, root_barrier_Y, everything())
  print(table_untidy)
```

    ## # A tibble: 146,611 x 22
    ##    tree_id root_barrier_N root_barrier_Y civic_number std_street    genus_name
    ##      <dbl>          <dbl>          <dbl>        <dbl> <chr>         <chr>     
    ##  1  149556           10               NA          494 W 58TH AV     ULMUS     
    ##  2  149563           10               NA          450 W 58TH AV     ZELKOVA   
    ##  3  149579            4               NA         4994 WINDSOR ST    STYRAX    
    ##  4  149590           18               NA          858 E 39TH AV     FRAXINUS  
    ##  5  149604            9               NA         5032 WINDSOR ST    ACER      
    ##  6  149616            5               NA          585 W 61ST AV     PYRUS     
    ##  7  149617           15               NA         4909 SHERBROOKE ST ACER      
    ##  8  149618           14               NA         4925 SHERBROOKE ST ACER      
    ##  9  149619           16               NA         4969 SHERBROOKE ST ACER      
    ## 10  149625            7.5             NA          720 E 39TH AV     FRAXINUS  
    ## # ... with 146,601 more rows, and 16 more variables: species_name <chr>,
    ## #   cultivar_name <chr>, common_name <chr>, assigned <chr>, plant_area <chr>,
    ## #   on_street_block <dbl>, on_street <chr>, neighbourhood_name <chr>,
    ## #   street_side_name <chr>, height_range_id <dbl>, curb <chr>,
    ## #   date_planted <date>, longitude <dbl>, latitude <dbl>, position <chr>,
    ## #   age_months <dbl>
…
