…
``` r
  #select necessary columns for clear demonstration

  vancouver_trees_reduced<-select(vancouver_trees,date_planted,diameter)
  vancouver_trees_month<-vancouver_trees_reduced %>% 
    mutate(month_planted=month(date_planted,label=TRUE))%>%
    drop_na()
  print(vancouver_trees_month)
```

    ## # A tibble: 70,063 x 3
    ##    date_planted diameter month_planted
    ##    <date>          <dbl> <ord>        
    ##  1 1999-01-13      10    Jan          
    ##  2 1996-05-31      10    May          
    ##  3 1993-11-22       4    Nov          
    ##  4 1996-04-29      18    Apr          
    ##  5 1993-12-17       9    Dec          
    ##  6 1993-12-16      15    Dec          
    ##  7 1993-12-16      14    Dec          
    ##  8 1993-12-16      16    Dec          
    ##  9 1993-12-03       7.5  Dec          
    ## 10 1993-12-03       7.75 Dec          
    ## # ... with 70,053 more rows
…
